Untitled
…
Qualitive Comparison

dfFlowS |>
    filter(Sentiment != avgSentiment) |>
  inner_join(dfSocial, join_by(textID == textID)) |>
  filter(
    textID %in% (
      dfFlowS |>
      filter(Sentiment != avgSentiment) |>
        pull("textID")
    )
  ) |>
  select(Text, "StdModel" = Sentiment.x, avgResult) 

# A tibble: 1,493 × 3
# Rowwise: 
   Text                                                       StdModel avgResult
   <chr>                                                      <chr>        <dbl>
 1 Last session of the day  http://twitpic.com/67ezh          neutral       0.8 
 2 I THINK EVERYONE HATES ME ON HERE   lol                    negative      0.4 
 3 I checked.  We didn`t win                                  neutral      -1   
 4 .. and you`re on twitter! Did the tavern bore you that mu… neutral      -1   
 5 I`m in VA for the weekend, my youngest son turns 2 tomorr… negative      0.2 
 6 Miss you                                                   negative     -0.6 
 7 you guys didn`t say hi or answer my questions yesterday  … positive     -0.14
 8 I`m going into a spiritual stagnentation, its exploding m… neutral       0.8 
 9 about to go to sleep                                       neutral       0.8 
10 Huh, another ScarePoint coding Sunday                      neutral      -1   
# ℹ 1,483 more rows
…
